SerialNumber,ComponentType,Vendor,ETROCSerialNumber,LGADSerialNumber
PS0001,Production Subassembly,Bump Bonding Vendor,PL0001,PE0001
PS0002,Production Subassembly,Bump Bonding Vendor,PL0002,PE0002
PS0003,Production Subassembly,Bump Bonding Vendor,PL0003,PE0003
PS0004,Production Subassembly,Bump Bonding Vendor,PL0004,PE0004
PS0005,Production Subassembly,Bump Bonding Vendor,PL0005,PE0005
PS0006,Production Subassembly,Bump Bonding Vendor,PL0006,PE0006
PS0007,Production Subassembly,Bump Bonding Vendor,PL0007,PE0007
PS0008,Production Subassembly,Bump Bonding Vendor,PL0008,PE0008
PS0009,Production Subassembly,Bump Bonding Vendor,PL0009,PE0009
PS0010,Production Subassembly,Bump Bonding Vendor,PL0010,PE0010
PS0011,Production Subassembly,Bump Bonding Vendor,PL0011,PE0011
PS0012,Production Subassembly,Bump Bonding Vendor,PL0012,PE0012
PS0013,Production Subassembly,Bump Bonding Vendor,PL0013,PE0013
PS0014,Production Subassembly,Bump Bonding Vendor,PL0014,PE0014
PS0015,Production Subassembly,Bump Bonding Vendor,PL0015,PE0015
PS0016,Production Subassembly,Bump Bonding Vendor,PL0016,PE0016
